module typescript-express-api-aws-deployment

go 1.18

require (
	github.com/gruntwork-io/terratest v0.40.20
	github.com/stretchr/testify v1.8.0
)

require (
	cloud.google.com/go v0.83.0 // indirect
	cloud.google.com/go/storage v1.10.0 // indirect
	github.com/agext/levenshtein v1.2.3 // indirect
	github.com/apparentlymart/go-textseg/v13 v13.0.0 // indirect
	github.com/aws/aws-sdk-go v1.40.56 // indirect
	github.com/bgentry/go-netrc v0.0.0-20140422174119-9fd32a8b3d3d // indirect
	github.com/davecgh/go-spew v1.1.1 // indirect
	github.com/golang/groupcache v0.0.0-20200121045136-8c9f03a8e57e // indirect
	github.com/golang/protobuf v1.5.2 // indirect
	github.com/golang/snappy v0.0.3 // indirect
	github.com/googleapis/gax-go/v2 v2.0.5 // indirect
	github.com/hashicorp/errwrap v1.0.0 // indirect
	github.com/hashicorp/go-cleanhttp v0.5.2 // indirect
	github.com/hashicorp/go-getter v1.6.1 // indirect
	github.com/hashicorp/go-multierror v1.1.0 // indirect
	github.com/hashicorp/go-safetemp v1.0.0 // indirect
	github.com/hashicorp/go-version v1.3.0 // indirect
	github.com/hashicorp/hcl/v2 v2.9.1 // indirect
	github.com/hashicorp/terraform-json v0.13.0 // indirect
	github.com/jinzhu/copier v0.0.0-20190924061706-b57f9002281a // indirect
	github.com/jmespath/go-jmespath v0.4.0 // indirect
	github.com/jstemmer/go-junit-report v0.9.1 // indirect
	github.com/klauspost/compress v1.13.0 // indirect
	github.com/mattn/go-zglob v0.0.2-0.20190814121620-e3c945676326 // indirect
	github.com/mitchellh/go-homedir v1.1.0 // indirect
	github.com/mitchellh/go-testing-interface v1.0.0 // indirect
	github.com/mitchellh/go-wordwrap v1.0.1 // indirect
	github.com/pmezard/go-difflib v1.0.0 // indirect
	github.com/tmccombs/hcl2json v0.3.3 // indirect
	github.com/ulikunitz/xz v0.5.8 // indirect
	github.com/zclconf/go-cty v1.9.1 // indirect
	go.opencensus.io v0.23.0 // indirect
	golang.org/x/crypto v0.0.0-20210513164829-c07d793c2f9a // indirect
	golang.org/x/lint v0.0.0-20210508222113-6edffad5e616 // indirect
	golang.org/x/mod v0.4.2 // indirect
	golang.org/x/net v0.0.0-20210614182718-04defd469f4e // indirect
	golang.org/x/oauth2 v0.0.0-20210514164344-f6687ab2804c // indirect
	golang.org/x/sys v0.0.0-20220517195934-5e4e11fc645e // indirect
	golang.org/x/text v0.3.6 // indirect
	golang.org/x/tools v0.1.2 // indirect
	golang.org/x/xerrors v0.0.0-20200804184101-5ec99f83aff1 // indirect
	google.golang.org/api v0.47.0 // indirect
	google.golang.org/appengine v1.6.7 // indirect
	google.golang.org/genproto v0.0.0-20210602131652-f16073e35f0c // indirect
	google.golang.org/grpc v1.38.0 // indirect
	google.golang.org/protobuf v1.26.0 // indirect
	gopkg.in/yaml.v3 v3.0.1 // indirect
)
